{
  "IcoMoonType": "selection",
  "icons": [
    {
      "icon": {
        "paths": [
          "M954.857 323.429q0 22.857-16 38.857l-491.429 491.429q-16 16-38.857 16t-38.857-16l-284.571-284.571q-16-16-16-38.857t16-38.857l77.714-77.714q16-16 38.857-16t38.857 16l168 168.571 374.857-375.429q16-16 38.857-16t38.857 16l77.714 77.714q16 16 16 38.857z"
        ],
        "width": 1024.0000610351562,
        "attrs": [],
        "isMulticolor": false,
        "tags": [
          "check"
        ],
        "defaultCode": 61452,
        "grid": 14
      },
      "attrs": [],
      "properties": {
        "id": 12,
        "order": 30,
        "name": "check",
        "prevSize": 28,
        "code": 61452
      },
      "setIdx": 2,
      "setId": 4,
      "iconIdx": 12
    },
    {
      "icon": {
        "paths": [
          "M741.714 755.429q0 22.857-16 38.857l-77.714 77.714q-16 16-38.857 16t-38.857-16l-168-168-168 168q-16 16-38.857 16t-38.857-16l-77.714-77.714q-16-16-16-38.857t16-38.857l168-168-168-168q-16-16-16-38.857t16-38.857l77.714-77.714q16-16 38.857-16t38.857 16l168 168 168-168q16-16 38.857-16t38.857 16l77.714 77.714q16 16 16 38.857t-16 38.857l-168 168 168 168q16 16 16 38.857z"
        ],
        "width": 804.5720672607422,
        "attrs": [],
        "isMulticolor": false,
        "tags": [
          "close",
          "remove",
          "times"
        ],
        "defaultCode": 61453,
        "grid": 14
      },
      "attrs": [],
      "properties": {
        "id": 13,
        "order": 18,
        "name": "close, remove, times",
        "prevSize": 28,
        "code": 61453
      },
      "setIdx": 2,
      "setId": 4,
      "iconIdx": 13
    },
    {
      "icon": {
        "paths": [
          "M838.857 217.143q16 16 27.429 43.429t11.429 50.286v658.286q0 22.857-16 38.857t-38.857 16h-768q-22.857 0-38.857-16t-16-38.857v-914.286q0-22.857 16-38.857t38.857-16h512q22.857 0 50.286 11.429t43.429 27.429zM585.143 77.714v214.857h214.857q-5.714-16.571-12.571-23.429l-178.857-178.857q-6.857-6.857-23.429-12.571zM804.571 950.857v-585.143h-237.714q-22.857 0-38.857-16t-16-38.857v-237.714h-438.857v877.714h731.429z"
        ],
        "width": 877.7160568237305,
        "attrs": [],
        "isMulticolor": false,
        "tags": [
          "file-o"
        ],
        "defaultCode": 61462,
        "grid": 14
      },
      "attrs": [],
      "properties": {
        "id": 21,
        "order": 25,
        "name": "file-o",
        "prevSize": 28,
        "code": 61462
      },
      "setIdx": 2,
      "setId": 4,
      "iconIdx": 21
    },
    {
      "icon": {
        "paths": [
          "M219.429 676.571v36.571q0 7.429-5.429 12.857t-12.857 5.429h-36.571q-7.429 0-12.857-5.429t-5.429-12.857v-36.571q0-7.429 5.429-12.857t12.857-5.429h36.571q7.429 0 12.857 5.429t5.429 12.857zM219.429 530.286v36.571q0 7.429-5.429 12.857t-12.857 5.429h-36.571q-7.429 0-12.857-5.429t-5.429-12.857v-36.571q0-7.429 5.429-12.857t12.857-5.429h36.571q7.429 0 12.857 5.429t5.429 12.857zM219.429 384v36.571q0 7.429-5.429 12.857t-12.857 5.429h-36.571q-7.429 0-12.857-5.429t-5.429-12.857v-36.571q0-7.429 5.429-12.857t12.857-5.429h36.571q7.429 0 12.857 5.429t5.429 12.857zM877.714 676.571v36.571q0 7.429-5.429 12.857t-12.857 5.429h-548.571q-7.429 0-12.857-5.429t-5.429-12.857v-36.571q0-7.429 5.429-12.857t12.857-5.429h548.571q7.429 0 12.857 5.429t5.429 12.857zM877.714 530.286v36.571q0 7.429-5.429 12.857t-12.857 5.429h-548.571q-7.429 0-12.857-5.429t-5.429-12.857v-36.571q0-7.429 5.429-12.857t12.857-5.429h548.571q7.429 0 12.857 5.429t5.429 12.857zM877.714 384v36.571q0 7.429-5.429 12.857t-12.857 5.429h-548.571q-7.429 0-12.857-5.429t-5.429-12.857v-36.571q0-7.429 5.429-12.857t12.857-5.429h548.571q7.429 0 12.857 5.429t5.429 12.857zM950.857 786.286v-475.429q0-7.429-5.429-12.857t-12.857-5.429h-841.143q-7.429 0-12.857 5.429t-5.429 12.857v475.429q0 7.429 5.429 12.857t12.857 5.429h841.143q7.429 0 12.857-5.429t5.429-12.857zM1024 164.571v621.714q0 37.714-26.857 64.571t-64.571 26.857h-841.143q-37.714 0-64.571-26.857t-26.857-64.571v-621.714q0-37.714 26.857-64.571t64.571-26.857h841.143q37.714 0 64.571 26.857t26.857 64.571z"
        ],
        "width": 1024.0009956359863,
        "attrs": [],
        "isMulticolor": false,
        "tags": [
          "list-alt"
        ],
        "defaultCode": 61474,
        "grid": 14
      },
      "attrs": [],
      "properties": {
        "id": 31,
        "order": 29,
        "name": "list-alt",
        "prevSize": 28,
        "code": 61474
      },
      "setIdx": 2,
      "setId": 4,
      "iconIdx": 31
    },
    {
      "icon": {
        "paths": [
          "M219.429 877.714h512v-146.286h-512v146.286zM219.429 512h512v-219.429h-91.429q-22.857 0-38.857-16t-16-38.857v-91.429h-365.714v365.714zM877.714 548.571q0-14.857-10.857-25.714t-25.714-10.857-25.714 10.857-10.857 25.714 10.857 25.714 25.714 10.857 25.714-10.857 10.857-25.714zM950.857 548.571v237.714q0 7.429-5.429 12.857t-12.857 5.429h-128v91.429q0 22.857-16 38.857t-38.857 16h-548.571q-22.857 0-38.857-16t-16-38.857v-91.429h-128q-7.429 0-12.857-5.429t-5.429-12.857v-237.714q0-45.143 32.286-77.429t77.429-32.286h36.571v-310.857q0-22.857 16-38.857t38.857-16h384q22.857 0 50.286 11.429t43.429 27.429l86.857 86.857q16 16 27.429 43.429t11.429 50.286v146.286h36.571q45.143 0 77.429 32.286t32.286 77.429z"
        ],
        "width": 950.8590908050537,
        "attrs": [],
        "isMulticolor": false,
        "tags": [
          "print"
        ],
        "defaultCode": 61487,
        "grid": 14
      },
      "attrs": [],
      "properties": {
        "id": 44,
        "order": 23,
        "name": "print",
        "prevSize": 28,
        "code": 61487
      },
      "setIdx": 2,
      "setId": 4,
      "iconIdx": 44
    },
    {
      "icon": {
        "paths": [
          "M207.429 877.714l52-52-134.286-134.286-52 52v61.143h73.143v73.143h61.143zM506.286 347.429q0-12.571-12.571-12.571-5.714 0-9.714 4l-309.714 309.714q-4 4-4 9.714 0 12.571 12.571 12.571 5.714 0 9.714-4l309.714-309.714q4-4 4-9.714zM475.429 237.714l237.714 237.714-475.429 475.429h-237.714v-237.714zM865.714 292.571q0 30.286-21.143 51.429l-94.857 94.857-237.714-237.714 94.857-94.286q20.571-21.714 51.429-21.714 30.286 0 52 21.714l134.286 133.714q21.143 22.286 21.143 52z"
        ],
        "width": 865.7150573730469,
        "attrs": [],
        "isMulticolor": false,
        "tags": [
          "pencil"
        ],
        "defaultCode": 61504,
        "grid": 14
      },
      "attrs": [],
      "properties": {
        "id": 60,
        "order": 17,
        "name": "pencil",
        "prevSize": 28,
        "code": 61504
      },
      "setIdx": 2,
      "setId": 4,
      "iconIdx": 60
    },
    {
      "icon": {
        "paths": [
          "M804.571 420.571v109.714q0 22.857-16 38.857t-38.857 16h-237.714v237.714q0 22.857-16 38.857t-38.857 16h-109.714q-22.857 0-38.857-16t-16-38.857v-237.714h-237.714q-22.857 0-38.857-16t-16-38.857v-109.714q0-22.857 16-38.857t38.857-16h237.714v-237.714q0-22.857 16-38.857t38.857-16h109.714q22.857 0 38.857 16t16 38.857v237.714h237.714q22.857 0 38.857 16t16 38.857z"
        ],
        "width": 804.5719833374023,
        "attrs": [],
        "isMulticolor": false,
        "tags": [
          "plus"
        ],
        "defaultCode": 61543,
        "grid": 14
      },
      "attrs": [],
      "properties": {
        "id": 97,
        "order": 21,
        "name": "plus",
        "prevSize": 28,
        "code": 61543
      },
      "setIdx": 2,
      "setId": 4,
      "iconIdx": 97
    },
    {
      "icon": {
        "paths": [
          "M438.857 73.143q119.429 0 220.286 58.857t159.714 159.714 58.857 220.286-58.857 220.286-159.714 159.714-220.286 58.857-220.286-58.857-159.714-159.714-58.857-220.286 58.857-220.286 159.714-159.714 220.286-58.857zM512 785.714v-108.571q0-8-5.143-13.429t-12.571-5.429h-109.714q-7.429 0-13.143 5.714t-5.714 13.143v108.571q0 7.429 5.714 13.143t13.143 5.714h109.714q7.429 0 12.571-5.429t5.143-13.429zM510.857 589.143l10.286-354.857q0-6.857-5.714-10.286-5.714-4.571-13.714-4.571h-125.714q-8 0-13.714 4.571-5.714 3.429-5.714 10.286l9.714 354.857q0 5.714 5.714 10t13.714 4.286h105.714q8 0 13.429-4.286t6-10z"
        ],
        "width": 877.7140070597306,
        "attrs": [],
        "isMulticolor": false,
        "tags": [
          "exclamation-circle"
        ],
        "defaultCode": 61546,
        "grid": 14
      },
      "attrs": [],
      "properties": {
        "id": 100,
        "order": 32,
        "name": "exclamation-circle",
        "prevSize": 28,
        "code": 61546
      },
      "setIdx": 2,
      "setId": 4,
      "iconIdx": 100
    },
    {
      "icon": {
        "paths": [
          "M585.143 785.714v-108.571q0-8-5.429-13.429t-12.857-5.429h-109.714q-7.429 0-12.857 5.429t-5.429 13.429v108.571q0 8 5.429 13.429t12.857 5.429h109.714q7.429 0 12.857-5.429t5.429-13.429zM584 572l10.286-262.286q0-6.857-5.714-10.857-7.429-6.286-13.714-6.286h-125.714q-6.286 0-13.714 6.286-5.714 4-5.714 12l9.714 261.143q0 5.714 5.714 9.429t13.714 3.714h105.714q8 0 13.429-3.714t6-9.429zM576 38.286l438.857 804.571q20 36-1.143 72-9.714 16.571-26.571 26.286t-36.286 9.714h-877.714q-19.429 0-36.286-9.714t-26.571-26.286q-21.143-36-1.143-72l438.857-804.571q9.714-17.714 26.857-28t37.143-10.286 37.143 10.286 26.857 28z"
        ],
        "width": 1023.9999628067017,
        "attrs": [],
        "isMulticolor": false,
        "tags": [
          "exclamation-triangle",
          "warning"
        ],
        "defaultCode": 61553,
        "grid": 14
      },
      "attrs": [],
      "properties": {
        "id": 106,
        "order": 33,
        "name": "exclamation-triangle, warning",
        "prevSize": 28,
        "code": 61553
      },
      "setIdx": 2,
      "setId": 4,
      "iconIdx": 106
    },
    {
      "icon": {
        "paths": [
          "M969.143 219.429q22.857 0 38.857 16t16 38.857v694.857q0 22.857-16 38.857t-38.857 16h-548.571q-22.857 0-38.857-16t-16-38.857v-164.571h-310.857q-22.857 0-38.857-16t-16-38.857v-384q0-22.857 11.429-50.286t27.429-43.429l233.143-233.143q16-16 43.429-27.429t50.286-11.429h237.714q22.857 0 38.857 16t16 38.857v187.429q38.857-22.857 73.143-22.857h237.714zM658.286 341.143l-170.857 170.857h170.857v-170.857zM292.571 121.714l-170.857 170.857h170.857v-170.857zM404.571 491.429l180.571-180.571v-237.714h-219.429v237.714q0 22.857-16 38.857t-38.857 16h-237.714v365.714h292.571v-146.286q0-22.857 11.429-50.286t27.429-43.429zM950.857 950.857v-658.286h-219.429v237.714q0 22.857-16 38.857t-38.857 16h-237.714v365.714h512z"
        ],
        "width": 1024.0010299682617,
        "attrs": [],
        "isMulticolor": false,
        "tags": [
          "copy",
          "files-o"
        ],
        "defaultCode": 61637,
        "grid": 14
      },
      "attrs": [],
      "properties": {
        "id": 173,
        "order": 24,
        "name": "copy, files-o",
        "prevSize": 28,
        "code": 61637
      },
      "setIdx": 2,
      "setId": 4,
      "iconIdx": 173
    },
    {
      "icon": {
        "paths": [
          "M838.857 217.143q16 16 27.429 43.429t11.429 50.286v658.286q0 22.857-16 38.857t-38.857 16h-768q-22.857 0-38.857-16t-16-38.857v-914.286q0-22.857 16-38.857t38.857-16h512q22.857 0 50.286 11.429t43.429 27.429zM585.143 77.714v214.857h214.857q-5.714-16.571-12.571-23.429l-178.857-178.857q-6.857-6.857-23.429-12.571zM804.571 950.857v-585.143h-237.714q-22.857 0-38.857-16t-16-38.857v-237.714h-438.857v877.714h731.429zM219.429 457.143q0-8 5.143-13.143t13.143-5.143h402.286q8 0 13.143 5.143t5.143 13.143v36.571q0 8-5.143 13.143t-13.143 5.143h-402.286q-8 0-13.143-5.143t-5.143-13.143v-36.571zM640 585.143q8 0 13.143 5.143t5.143 13.143v36.571q0 8-5.143 13.143t-13.143 5.143h-402.286q-8 0-13.143-5.143t-5.143-13.143v-36.571q0-8 5.143-13.143t13.143-5.143h402.286zM640 731.429q8 0 13.143 5.143t5.143 13.143v36.571q0 8-5.143 13.143t-13.143 5.143h-402.286q-8 0-13.143-5.143t-5.143-13.143v-36.571q0-8 5.143-13.143t13.143-5.143h402.286z"
        ],
        "width": 877.7160568237305,
        "attrs": [],
        "isMulticolor": false,
        "tags": [
          "file-text-o"
        ],
        "defaultCode": 61686,
        "grid": 14
      },
      "attrs": [],
      "properties": {
        "id": 219,
        "order": 26,
        "name": "file-text-o",
        "prevSize": 28,
        "code": 61686
      },
      "setIdx": 2,
      "setId": 4,
      "iconIdx": 219
    },
    {
      "icon": {
        "paths": [
          "M585.143 292.571v-269.714q12.571 8 20.571 16l233.143 233.143q8 8 16 20.571h-269.714zM512 310.857q0 22.857 16 38.857t38.857 16h310.857v603.429q0 22.857-16 38.857t-38.857 16h-768q-22.857 0-38.857-16t-16-38.857v-914.286q0-22.857 16-38.857t38.857-16h457.143v310.857z"
        ],
        "width": 877.7140426635742,
        "attrs": [],
        "isMulticolor": false,
        "tags": [
          "file"
        ],
        "defaultCode": 61787,
        "grid": 14
      },
      "attrs": [],
      "properties": {
        "id": 312,
        "order": 27,
        "name": "file",
        "prevSize": 28,
        "code": 61787
      },
      "setIdx": 2,
      "setId": 4,
      "iconIdx": 312
    },
    {
      "icon": {
        "paths": [
          "M838.857 272q8 8 16 20.571h-269.714v-269.714q12.571 8 20.571 16zM566.857 365.714h310.857v603.429q0 22.857-16 38.857t-38.857 16h-768q-22.857 0-38.857-16t-16-38.857v-914.286q0-22.857 16-38.857t38.857-16h457.143v310.857q0 22.857 16 38.857t38.857 16zM658.286 786.286v-36.571q0-8-5.143-13.143t-13.143-5.143h-402.286q-8 0-13.143 5.143t-5.143 13.143v36.571q0 8 5.143 13.143t13.143 5.143h402.286q8 0 13.143-5.143t5.143-13.143zM658.286 640v-36.571q0-8-5.143-13.143t-13.143-5.143h-402.286q-8 0-13.143 5.143t-5.143 13.143v36.571q0 8 5.143 13.143t13.143 5.143h402.286q8 0 13.143-5.143t5.143-13.143zM658.286 493.714v-36.571q0-8-5.143-13.143t-13.143-5.143h-402.286q-8 0-13.143 5.143t-5.143 13.143v36.571q0 8 5.143 13.143t13.143 5.143h402.286q8 0 13.143-5.143t5.143-13.143z"
        ],
        "width": 877.7140426635742,
        "attrs": [],
        "isMulticolor": false,
        "tags": [
          "file-text"
        ],
        "defaultCode": 61788,
        "grid": 14
      },
      "attrs": [],
      "properties": {
        "id": 313,
        "order": 28,
        "name": "file-text",
        "prevSize": 28,
        "code": 61788
      },
      "setIdx": 2,
      "setId": 4,
      "iconIdx": 313
    }
  ],
  "height": 1024,
  "metadata": {
    "name": "icomoon"
  },
  "preferences": {
    "showGlyphs": true,
    "showQuickUse": true,
    "showQuickUse2": true,
    "showSVGs": true,
    "fontPref": {
      "prefix": "icon-",
      "metadata": {
        "fontFamily": "icomoon",
        "majorVersion": 1,
        "minorVersion": 1
      },
      "metrics": {
        "emSize": 1024,
        "baseline": 6.25,
        "whitespace": 50
      },
      "embed": false,
      "showSelector": true,
      "showMetrics": true,
      "showVersion": true
    },
    "imagePref": {
      "prefix": "icon-",
      "png": false,
      "useClassSelector": true,
      "color": 4473924,
      "bgColor": 16777215,
      "classSelector": ".icon",
      "autoHost": true,
      "height": 1024,
      "columns": 16,
      "margin": 16,
      "overrideSize": true
    },
    "historySize": 100,
    "showCodes": false,
    "gridSize": 16,
    "quickUsageToken": {
      "UntitledProject": "NWI1YWQzODI3MjIwY2VhMTQwNjk2YWJlODhkYjJhZTIjMSMxNDU3Nzc4ODEzIyMj"
    },
    "showLiga": true
  }
}